<svg xmlns="http://www.w3.org/2000/svg" width="666152.013" height="174495.606" viewBox="0 0 176.25272 46.168629">
  <g fill="#e9ecef">
    <text y="115.47" x="91.358" style="line-height:1.25;-inkscape-font-specification:'Jannon 10 Pro, Italic';font-variant-ligatures:normal;font-variant-caps:normal;font-variant-numeric:normal;font-feature-settings:normal;text-align:end" font-style="italic" font-size="23.283" font-family="Jannon 10 Pro" letter-spacing="0" word-spacing="0" text-anchor="end" stroke-width=".265" transform="translate(-19.22 -87.95)">
      <tspan style="-inkscape-font-specification:'Jannon 10 Pro, Italic';font-variant-ligatures:normal;font-variant-caps:normal;font-variant-numeric:normal;font-feature-settings:normal;text-align:end" y="115.47" x="91.358" font-size="21.167">Ateliers</tspan>
    </text>
    <path d="M93.362 10.927v1.886c0 .166-.276.254-.584.254-.298-1.51-1.115-2.074-2.052-2.074-.883 0-1.258.563-1.258 1.147 0 1.964 4.27 1.754 4.27 4.777 0 2.14-1.633 3.266-3.64 3.266-1.932 0-2.892-.486-2.892-.916v-1.92c0-.23.276-.297.585-.297.3 1.49 1.115 2.173 2.45 2.173.938 0 1.423-.52 1.423-1.147 0-2.306-4.29-1.843-4.29-4.965 0-1.654 1.3-3.077 3.452-3.077 1.49.01 2.537.452 2.537.894zM97.102 14.48c0 2.05 1.126 3.353 3.178 3.353 1.114 0 2.173-.397 2.68-1.236.21 0 .442.122.442.33 0 .774-.84 3.245-3.96 3.245-2.12 0-4.292-1.423-4.292-4.81 0-2.935 2.35-5.318 4.997-5.318 2.405 0 3.387 1.214 3.387 2.957 0 .608-.254.773-.607.773h-5.78c-.023.22-.045.474-.045.706zm4.215-2.307c0-.54-.464-.982-1.335-.982-1.258 0-2.174.796-2.593 1.866 3.507-.12 3.927-.353 3.927-.883zM111.775 10.044c1.732 0 2.87 1.026 2.87 3.122v5.483c0 .275.087.518.418.518h.86v.65h-5.174v-.65h1.047c.375 0 .442-.254.442-.52v-4.71c0-1.566-1.005-2.118-1.987-2.118-.96 0-2.074.52-2.074 1.115v5.714c0 .275.043.518.396.518h1.048v.65h-5.174v-.65h.882c.33 0 .442-.254.442-.52v-5.89c0-.31-.067-.485-.42-.563l-.54-.12c-.232-.067-.353-.122-.353-.354 0-.087.023-.142.09-.187 1.73-.253 2.757-.882 3.265-1.533.1 0 .375.022.375.12v1.822c.97-1.27 2.36-1.898 3.585-1.898zM123.172 10.927v1.886c0 .166-.276.254-.585.254-.298-1.51-1.114-2.074-2.052-2.074-.883 0-1.258.563-1.258 1.147 0 1.964 4.27 1.754 4.27 4.777 0 2.14-1.633 3.266-3.64 3.266-1.932 0-2.89-.486-2.89-.916v-1.92c0-.23.274-.297.583-.297.298 1.49 1.115 2.173 2.45 2.173.937 0 1.423-.52 1.423-1.147 0-2.306-4.292-1.843-4.292-4.965 0-1.654 1.303-3.077 3.454-3.077 1.49.01 2.538.452 2.538.894z"/>
    <g>
      <path d="M111.5 22.455c2.56 0 3.905 1.953 3.905 4.116 0 2.957-2.04 5.23-5.064 5.23-.617 0-1.257-.1-1.963-.31v3.597c0 .276.044.486.364.486h1.17v.596h-4.986v-.597h.817c.31 0 .41-.21.41-.486V24.97c0-.286-.056-.44-.387-.518l-.508-.12c-.21-.056-.33-.122-.33-.332 0-.077.02-.132.076-.177 1.612-.23 2.56-.816 3.035-1.412.1 0 .353.023.353.123v1.29c.916-.915 1.964-1.368 3.11-1.368zm-3.123 5.88c0 1.744.618 2.626 1.997 2.626 1.82 0 2.736-1.676 2.736-3.518 0-2.052-1.048-3.497-2.857-3.497-1.048 0-1.887.463-1.887 1.06v3.33zM125.808 30.355h.97v.485l-3.44.816-.133-1.412c-.84 1.026-2.096 1.567-3.266 1.567-1.612 0-2.638-.948-2.638-2.88v-4.963c0-.254-.077-.486-.386-.486h-.816v-.594h3.43v5.306c0 1.446.817 1.975 1.733 1.975.894 0 1.942-.507 1.942-1.048v-5.153c0-.254-.044-.486-.386-.486h-.972v-.594h3.596v6.994c0 .265.033.475.364.475zM129.24 30.818c-.332 0-.563.287-.84 1.236l-.507-.078c.232-1.368.276-2.592.276-5.946v-7.204c0-.717-.21-.828-.54-.95l-.354-.12c-.232-.078-.31-.2-.31-.364 0-.122.023-.188.056-.254 1.588-.12 2.328-.386 3.188-.828.1 0 .33.023.33.122 0 .176-.13 1.213-.13 5.373v2.03c.97-.905 2.073-1.368 3.242-1.368 2.383 0 3.762 1.82 3.762 4.27 0 2.978-2.15 5.074-4.93 5.074-1.998 0-2.483-.992-3.245-.992zm1.17-2.56c0 1.8.606 2.703 1.996 2.703 1.61 0 2.703-1.488 2.703-3.42 0-2.16-1.15-3.573-2.782-3.573-1.07 0-1.92.463-1.92 1.06zM141.76 21.86v8.54c0 .252.045.484.365.484h.84v.596h-4.657v-.596h.816c.31 0 .408-.232.408-.485V18.825c0-.717-.23-.828-.54-.95l-.353-.12c-.233-.078-.332-.2-.332-.364 0-.122.022-.188.055-.254 1.655-.12 2.372-.386 3.188-.828.1 0 .354.023.354.122 0 .21-.143 1.29-.143 5.428zM147.3 30.4c0 .252.043.484.363.484h.84v.596h-4.657v-.596h.816c.31 0 .41-.232.41-.485v-5.43c0-.286-.056-.44-.387-.518l-.508-.12c-.21-.056-.33-.122-.33-.332 0-.077.02-.132.076-.177 1.666-.23 2.626-.816 3.034-1.412.1 0 .353.023.353.123V30.4zm.34-10.813c0 .794-.64 1.434-1.433 1.434-.772 0-1.434-.64-1.434-1.433 0-.772.662-1.434 1.434-1.434.794 0 1.434.65 1.434 1.434zM153.235 31.81c-2.383 0-3.906-1.875-3.906-4.423 0-2.835 2.448-4.92 4.644-4.92 1.864 0 2.736.66 2.736 1.754 0 .663-.386 1.005-.95 1.005-.97 0-.992-1.313-2.35-1.313-1.4 0-2.272 1.004-2.272 2.625 0 1.975 1.148 3.012 2.792 3.012.87 0 1.81-.43 2.427-1.258.176 0 .353.077.353.33 0 1.004-.673 3.19-3.475 3.19z"/>
    </g>
    <g>
      <path d="M160.185 31.447c-.166 0-.21-.2-.21-.408 0-.233.055-.487.21-.487h3.53v-17.11h-3.53c-.166 0-.21-.233-.21-.486 0-.2.055-.398.21-.398h6.068v18.876h-6.068z"/>
    </g>
    <g>
      <path d="M78.005 10.772h6.587c.154 0 .21.21.21.43 0 .276-.056.53-.21.53h-3.84v18.59h3.85c.155 0 .21.275.21.53 0 .23-.055.45-.21.45h-6.597z"/>
    </g>
  </g>
</svg>
