<?xml version="1.0" encoding="utf-8"?>
<svg version="1.1" class="sp_logo_block" xmlns="http://www.w3.org/2000/svg" xmlns:xlink="http://www.w3.org/1999/xlink" x="0px" y="0px"
	 viewBox="0 0 800 238" style="enable-background:new 0 0 800 238;" xml:space="preserve" fill="#e9ecef">
<g>
	<g>
		<path d="M139.3,9.1v17.1c0,1.5-2.5,2.3-5.3,2.3c-2.7-13.7-10.1-18.8-18.6-18.8c-8,0-11.4,5.1-11.4,10.4
			c0,17.8,38.7,15.9,38.7,43.3c0,19.4-14.8,29.6-33,29.6c-17.5,0-26.2-4.4-26.2-8.3V67.3c0-2.1,2.5-2.7,5.3-2.7
			c2.7,13.5,10.1,19.7,22.2,19.7c8.5,0,12.9-4.7,12.9-10.4c0-20.9-38.9-16.7-38.9-45c0-15,11.8-27.9,31.3-27.9
			C129.8,1.1,139.3,5.1,139.3,9.1z"/>
		<path d="M173.2,41.3c0,18.6,10.2,30.4,28.8,30.4c10.1,0,19.7-3.6,24.3-11.2c1.9,0,4,1.1,4,3c0,7-7.6,29.4-35.9,29.4
			c-19.2,0-38.9-12.9-38.9-43.6c0-26.6,21.3-48.2,45.3-48.2c21.8,0,30.7,11,30.7,26.8c0,5.5-2.3,7-5.5,7h-52.4
			C173.4,36.9,173.2,39.2,173.2,41.3z M211.4,20.4c0-4.9-4.2-8.9-12.1-8.9c-11.4,0-19.7,7.2-23.5,16.9
			C207.6,27.3,211.4,25.2,211.4,20.4z"/>
		<path d="M306.2,1.1c15.7,0,26,9.3,26,28.3v49.7c0,2.5,0.8,4.7,3.8,4.7h7.8v5.9h-46.9v-5.9h9.5c3.4,0,4-2.3,4-4.7V36.4
			c0-14.2-9.1-19.2-18-19.2c-8.7,0-18.8,4.7-18.8,10.1v51.8c0,2.5,0.4,4.7,3.6,4.7h9.5v5.9h-46.9v-5.9h8c3,0,4-2.3,4-4.7V25.7
			c0-2.8-0.6-4.4-3.8-5.1l-4.9-1.1c-2.1-0.6-3.2-1.1-3.2-3.2c0-0.8,0.2-1.3,0.8-1.7c15.7-2.3,25-8,29.6-13.9c0.9,0,3.4,0.2,3.4,1.1
			v16.5C282.5,6.8,295.1,1.1,306.2,1.1z"/>
		<path d="M409.5,9.1v17.1c0,1.5-2.5,2.3-5.3,2.3c-2.7-13.7-10.1-18.8-18.6-18.8c-8,0-11.4,5.1-11.4,10.4
			c0,17.8,38.7,15.9,38.7,43.3c0,19.4-14.8,29.6-33,29.6c-17.5,0-26.2-4.4-26.2-8.3V67.3c0-2.1,2.5-2.7,5.3-2.7
			c2.7,13.5,10.1,19.7,22.2,19.7c8.5,0,12.9-4.7,12.9-10.4c0-20.9-38.9-16.7-38.9-45c0-15,11.8-27.9,31.3-27.9
			C400,1.1,409.5,5.1,409.5,9.1z"/>
	</g>
	<g>
		<path d="M303.7,113.6c23.2,0,35.4,17.7,35.4,37.3c0,26.8-18.5,47.4-45.9,47.4c-5.6,0-11.4-0.9-17.8-2.8v32.6
			c0,2.5,0.4,4.4,3.3,4.4h10.6v5.4h-45.2v-5.4h7.4c2.8,0,3.7-1.9,3.7-4.4v-91.7c0-2.6-0.5-4-3.5-4.7l-4.6-1.1c-1.9-0.5-3-1.1-3-3
			c0-0.7,0.2-1.2,0.7-1.6c14.6-2.1,23.2-7.4,27.5-12.8c0.9,0,3.2,0.2,3.2,1.1v11.7C283.8,117.7,293.3,113.6,303.7,113.6z
			 M275.4,166.9c0,15.8,5.6,23.8,18.1,23.8c16.5,0,24.8-15.2,24.8-31.9c0-18.6-9.5-31.7-25.9-31.7c-9.5,0-17.1,4.2-17.1,9.6V166.9z"
			/>
		<path d="M433.4,185.2h8.8v4.4L411,197l-1.2-12.8c-7.6,9.3-19,14.2-29.6,14.2c-14.6,0-23.9-8.6-23.9-26.1v-45
			c0-2.3-0.7-4.4-3.5-4.4h-7.4v-5.4h31.1v48.1c0,13.1,7.4,17.9,15.7,17.9c8.1,0,17.6-4.6,17.6-9.5v-46.7c0-2.3-0.4-4.4-3.5-4.4h-8.8
			v-5.4h32.6v63.4C430.1,183.3,430.4,185.2,433.4,185.2z"/>
		<path d="M464.5,189.4c-3,0-5.1,2.6-7.6,11.2l-4.6-0.7c2.1-12.4,2.5-23.5,2.5-53.9V80.7c0-6.5-1.9-7.5-4.9-8.6l-3.2-1.1
			c-2.1-0.7-2.8-1.8-2.8-3.3c0-1.1,0.2-1.7,0.5-2.3c14.4-1.1,21.1-3.5,28.9-7.5c0.9,0,3,0.2,3,1.1c0,1.6-1.2,11-1.2,48.7v18.4
			c8.8-8.2,18.8-12.4,29.4-12.4c21.6,0,34.1,16.5,34.1,38.7c0,27-19.5,46-44.7,46C475.8,198.4,471.4,189.4,464.5,189.4z
			 M475.1,166.2c0,16.3,5.5,24.5,18.1,24.5c14.6,0,24.5-13.5,24.5-31c0-19.6-10.4-32.4-25.2-32.4c-9.7,0-17.4,4.2-17.4,9.6V166.2z"
			/>
		<path d="M578,108.2v77.4c0,2.3,0.4,4.4,3.3,4.4h7.6v5.4h-42.2V190h7.4c2.8,0,3.7-2.1,3.7-4.4V80.7c0-6.5-2.1-7.5-4.9-8.6l-3.2-1.1
			c-2.1-0.7-3-1.8-3-3.3c0-1.1,0.2-1.7,0.5-2.3c15-1.1,21.5-3.5,28.9-7.5c0.9,0,3.2,0.2,3.2,1.1C579.3,60.9,578,70.7,578,108.2z"/>
		<path d="M628.2,185.6c0,2.3,0.4,4.4,3.3,4.4h7.6v5.4h-42.2V190h7.4c2.8,0,3.7-2.1,3.7-4.4v-49.2c0-2.6-0.5-4-3.5-4.7l-4.6-1.1
			c-1.9-0.5-3-1.1-3-3c0-0.7,0.2-1.2,0.7-1.6c15.1-2.1,23.8-7.4,27.5-12.8c0.9,0,3.2,0.2,3.2,1.1V185.6z M631.3,87.6
			c0,7.2-5.8,13-13,13c-7,0-13-5.8-13-13c0-7,6-13,13-13C625.5,74.6,631.3,80.5,631.3,87.6z"/>
		<path d="M682,198.4c-21.6,0-35.4-17-35.4-40.1c0-25.7,22.2-44.6,42.1-44.6c16.9,0,24.8,6,24.8,15.9c0,6-3.5,9.1-8.6,9.1
			c-8.8,0-9-11.9-21.3-11.9c-12.7,0-20.6,9.1-20.6,23.8c0,17.9,10.4,27.3,25.3,27.3c7.9,0,16.4-3.9,22-11.4c1.6,0,3.2,0.7,3.2,3
			C713.5,178.6,707.4,198.4,682,198.4z"/>
	</g>
	<g>
		<path d="M745,195.1c-1.5,0-1.9-1.8-1.9-3.7c0-2.1,0.5-4.4,1.9-4.4h32V31.9h-32c-1.5,0-1.9-2.1-1.9-4.4c0-1.8,0.5-3.6,1.9-3.6h55
			v171.1H745z"/>
	</g>
	<g>
		<path d="M0.1,7.7h59.7c1.4,0,1.9,1.9,1.9,3.9c0,2.5-0.5,4.8-1.9,4.8H25v168.5h34.9c1.4,0,1.9,2.5,1.9,4.8c0,2.1-0.5,4.1-1.9,4.1
			H0.1V7.7z"/>
	</g>
</g>
</svg>
